^C:\$ECLIPSE32BIT\ECLIPSEWORKSPACE32BIT\DOME\DOMENATIVEPLUGINCODE\DOMEPLUGINNEW\DOMEEXCEPTION.CPP|C:\$ECLIPSE32BIT\ECLIPSEWORKSPACE32BIT\DOME\DOMENATIVEPLUGINCODE\DOMEPLUGINNEW\TYPECONVERSIONS.CPP|C:\$ECLIPSE32BIT\ECLIPSEWORKSPACE32BIT\DOME\DOMENATIVEPLUGINCODE\EXCELPLUGINNEW\STDAFX.CPP
C:\$ECLIPSE32BIT\ECLIPSEWORKSPACE32BIT\DOME\DOMENATIVEPLUGINCODE\DOMEPLUGINNEW\RELEASE\TYPECONVERSIONS.OBJ
C:\$ECLIPSE32BIT\ECLIPSEWORKSPACE32BIT\DOME\DOMENATIVEPLUGINCODE\DOMEPLUGINNEW\RELEASE\DOMEEXCEPTION.OBJ
C:\$ECLIPSE32BIT\ECLIPSEWORKSPACE32BIT\DOME\DOMENATIVEPLUGINCODE\DOMEPLUGINNEW\RELEASE\STDAFX.OBJ
^C:\$ECLIPSE32BIT\ECLIPSEWORKSPACE32BIT\DOME\DOMENATIVEPLUGINCODE\EXCELPLUGINNEW\STDAFX.CPP
C:\$ECLIPSE32BIT\ECLIPSEWORKSPACE32BIT\DOME\DOMENATIVEPLUGINCODE\DOMEPLUGINNEW\RELEASE\VC100.PDB
^C:\$ECLIPSE32BIT\ECLIPSEWORKSPACE32BIT\DOME\DOMENATIVEPLUGINCODE\DOMEPLUGINNEW\DOMEEXCEPTION.CPP
C:\$ECLIPSE32BIT\ECLIPSEWORKSPACE32BIT\DOME\DOMENATIVEPLUGINCODE\DOMEPLUGINNEW\RELEASE\VC100.PDB
^C:\$ECLIPSE32BIT\ECLIPSEWORKSPACE32BIT\DOME\DOMENATIVEPLUGINCODE\DOMEPLUGINNEW\TYPECONVERSIONS.CPP
C:\$ECLIPSE32BIT\ECLIPSEWORKSPACE32BIT\DOME\DOMENATIVEPLUGINCODE\DOMEPLUGINNEW\RELEASE\VC100.PDB
