^C:\$ECLIPSE32BIT\ECLIPSEWORKSPACE32BIT\DOME\DOMENATIVEPLUGINCODE\MATLABPLUGINNEW\R12_RELEASE\MATLABPLUGIN.DLL.INTERMEDIATE.MANIFEST|C:\PROGRAM FILES (X86)\MICROSOFT VISUAL STUDIO 10.0\VC\INCLUDE\MANIFEST\DPIAWARE.MANIFEST
C:\PROGRAM FILES (X86)\MICROSOFT VISUAL STUDIO 10.0\VC\INCLUDE\MANIFEST\DPIAWARE.MANIFEST
C:\WINDOWS\MICROSOFT.NET\FRAMEWORK\V2.0.50727\MSCORWKS.DLL
C:\WINDOWS\MICROSOFT.NET\FRAMEWORK\V4.0.30319\CLR.DLL
C:\PROGRAM FILES (X86)\MICROSOFT SDKS\WINDOWS\V7.0A\BIN\MT.EXE.CONFIG
C:\$ECLIPSE32BIT\ECLIPSEWORKSPACE32BIT\DOME\DOMENATIVEPLUGINCODE\MATLABPLUGINNEW\R12_RELEASE\MATLABPLUGINR12.DLL
