^C:\ADIGITALMFG\DIGITALMFGCOMMONS-DOME\DOMENATIVEPLUGINCODE\EXCELPLUGINNEW\2KXP_RELEASE\EXCEL9.SBR|C:\ADIGITALMFG\DIGITALMFGCOMMONS-DOME\DOMENATIVEPLUGINCODE\EXCELPLUGINNEW\2KXP_RELEASE\EXCELDATA.SBR|C:\ADIGITALMFG\DIGITALMFGCOMMONS-DOME\DOMENATIVEPLUGINCODE\EXCELPLUGINNEW\2KXP_RELEASE\EXCELDELEGATE.SBR|C:\ADIGITALMFG\DIGITALMFGCOMMONS-DOME\DOMENATIVEPLUGINCODE\EXCELPLUGINNEW\2KXP_RELEASE\EXCELMODEL.SBR|C:\ADIGITALMFG\DIGITALMFGCOMMONS-DOME\DOMENATIVEPLUGINCODE\EXCELPLUGINNEW\2KXP_RELEASE\EXCELPLUGINCALLER.SBR|C:\ADIGITALMFG\DIGITALMFGCOMMONS-DOME\DOMENATIVEPLUGINCODE\EXCELPLUGINNEW\2KXP_RELEASE\JNIHELPER.SBR|C:\ADIGITALMFG\DIGITALMFGCOMMONS-DOME\DOMENATIVEPLUGINCODE\EXCELPLUGINNEW\2KXP_RELEASE\STDAFX.SBR
C:\WINDOWS\SYSTEM32\TZRES.DLL
C:\ADIGITALMFG\DIGITALMFGCOMMONS-DOME\DOMENATIVEPLUGINCODE\EXCELPLUGINNEW\2KXP_RELEASE\EXCEL9.SBR
C:\ADIGITALMFG\DIGITALMFGCOMMONS-DOME\DOMENATIVEPLUGINCODE\EXCELPLUGINNEW\2KXP_RELEASE\EXCELDATA.SBR
C:\ADIGITALMFG\DIGITALMFGCOMMONS-DOME\DOMENATIVEPLUGINCODE\EXCELPLUGINNEW\2KXP_RELEASE\EXCELDELEGATE.SBR
C:\ADIGITALMFG\DIGITALMFGCOMMONS-DOME\DOMENATIVEPLUGINCODE\EXCELPLUGINNEW\2KXP_RELEASE\EXCELMODEL.SBR
C:\ADIGITALMFG\DIGITALMFGCOMMONS-DOME\DOMENATIVEPLUGINCODE\EXCELPLUGINNEW\2KXP_RELEASE\EXCELPLUGINCALLER.SBR
C:\ADIGITALMFG\DIGITALMFGCOMMONS-DOME\DOMENATIVEPLUGINCODE\EXCELPLUGINNEW\2KXP_RELEASE\JNIHELPER.SBR
C:\ADIGITALMFG\DIGITALMFGCOMMONS-DOME\DOMENATIVEPLUGINCODE\EXCELPLUGINNEW\2KXP_RELEASE\STDAFX.SBR
